%YAML 1.1
%TAG !u! tag:unity3d.com,2011:
--- !u!1045 &1
EditorBuildSettings:
  m_ObjectHideFlags: 0
  serializedVersion: 2
  m_Scenes:
  - enabled: 0
    path: Assets/Parallax/ParallaxScene.unity
    guid: 2cda990e2423bbf4892e6590ba056729
  - enabled: 1
    path: Assets/SpaceShooter/MultiplayerShooter.unity
    guid: 79299023ac729bb44b96cc0630424e91
  m_configObjects:
    com.unity.input.settings: {fileID: 11400000, guid: e1a3afc76cead6d48b39671c65b03036, type: 2}
